{
  "label": "DWWM - Doc",
  "position": 4,
  "link": {
    "type": "generated-index",
    "description": "Générer une documentation pour nos application à l'aide de la syntaxe Markdown en utilisant Docusaurus, GitLab CI et GitLab Pages"
  }
}
